{
  "type": "service_account",
  "project_id": "adsconcierge",
  "private_key_id": "2a3f7565671179b52576e260d98441d284327879",
  "private_key": "-----BEGIN PRIVATE KEY-----\nMIIEvwIBADANBgkqhkiG9w0BAQEFAASCBKkwggSlAgEAAoIBAQC4lLGlysM30fXa\nYJSC9VoYT79sLdSb1nsUNOFZac9EqtOSolB8KtTBLYpV+lkafkq9SpvWXwG5zRSW\nnuLSdnOvdkHPwGvPZM2P6UwfdgXS8NruERt9neX82kEIMe8+6YmXEl0uO8fRuK7o\n94j+NuULurw6L48IcUHuUo78beksXXenGftgmxwxrHZyoiJS4xBrnWPZAt0WKjCZ\na9yMpdf9dk6HFFKtJVO1OuDf3CQqjfdEZi4Mm1Bsgj80hwRR39+BiOhPMC2J2QbL\n1bpCGXqoAXAWzgUkDSRaJuQU1RHFcdxMN41ePxIG2mg4TOh29UEO7IDRbnF/dMbh\nAGDiLhX3AgMBAAECggEAA7crbLsMQkkPkt83DFGWCCMHQ777ihRqL2R/xv7gmOLt\nMj3ia8LF2HxOv8nea0ziZdG6UnJEQS6ph4uKHf1Uo+6NXF3IcVdNHjnuj1h0S47W\nuyGiI0EUw1EEgP66Gyg0iH4VJBjG2pnGHHajlPtT5v5uSuCpiTHbx1eR4JnVWTPL\nsioLam6ZyOn3ovVuuq5H/s2quNv6fJSgxv95GqZ4N9FDgL6uH2hselh63AEEBA2/\nWEG5CLGk9WX7FgthTR1yUB9AXNdvmejCTItSfC7WiqnKnwdT0oe8G8FJJlh76Chk\n0brBOWutempd1uO2095P/9QKbMtql2aH1VsJ0U/riQKBgQDik4PhocckRXe04h+8\nKjo6qipaMQWB0B6pI/hQgmYZly6xPLiCKv7Ew3ohnTo0g/+eX9wMGQ2h4BHk7ibd\npilruacHKIbtAttk5Xtz1xxrQxeWgRUedO5RMPe353/+K0ZujyGZABXSf+PV/7EG\n8Qo5ff1VzJoCEhYPWFkg3khJ+wKBgQDQjQy0rihiA2lH7b/jbk0cRFmqZzDSSuVL\nuD5VvujVTo4JcQEnBIjxuCYRbHFrOlHrUPWagdt0/hn4KkFQ0E71y1SZviX8Xniv\n0BahgOsnH1WfuiDKuY5NqidMrVl4IHuTytajJ5YcQYsquB/I2fsY1MfVc5nBka1v\nj9uye2Y/NQKBgQCLwF89AZMaXTq7uCnI3ubxnlnnLYtvCVaQDx6vUe7149kp+wD3\nUNu5s7SWHSt0juJQ5mGMmLte2B1Rbk9MsZuk1WsfsDCg6f0225Ds34ao5kYbT90d\n3xPLwn9Y0JKSzFByCxi3DWVoY/e83Cxt0qjy0zI6BKwNkOhIaL741gISlwKBgQC/\nMF/ykCrDWB8/as1cwbT9cgfFuV4/m5vEI/85epBXZPG/5BJLY9PrzYdQt9ruk4Og\nOBNA90VqZr0GDi7c2Gta2HIRlAmc6Dq56wmkO9zYe9hyWx9O2neD6bani9AW2aiQ\n4AaPgm4SL2BW5H93Eacpp4Afxh+yHkwil36wjII69QKBgQDB5t/cHZPcnaffHCY4\nOEHRJXB/MOPPDUqzKAwYhV/8SRrBmTIgQ7HDESpEYK5fxJE6vM/lfRLVVlc50ifD\nWrb40zbtbfCbtVA7QcUxn8/GuVWjkxn18K/FzkUaRn+j/mS6r8er9d1qp8L19jwC\n77My69sLV7VPOfg2+PVr5brxtw==\n-----END PRIVATE KEY-----\n",
  "client_email": "aplicacion@adsconcierge.iam.gserviceaccount.com",
  "client_id": "116067370238263439210",
  "auth_uri": "https://accounts.google.com/o/oauth2/auth",
  "token_uri": "https://oauth2.googleapis.com/token",
  "auth_provider_x509_cert_url": "https://www.googleapis.com/oauth2/v1/certs",
  "client_x509_cert_url": "https://www.googleapis.com/robot/v1/metadata/x509/aplicacion%40adsconcierge.iam.gserviceaccount.com"
}