Array
(
    [id] => 16
    [id_en_platform] => 
    [user_id] => 1
    [title] => titulo 2
    [content] => texto
    [banner] => 12413
    [macrotag] => tag
    [type] => 
    [size] => 
    [printouts] => 
    [clicks] => 
    [ctr] => 
    [costs_per_click] => 
    [conversion_costs] => 
    [platform] => 
    [campana_root] => 0
    [campana_platform_id] => 1
    [atomo_id] => 0
    [description] => 
    [linkdescription] => 
    [calltoaction] => 
    [page_id_en_platform] => 126069094110167
    [campana_id_en_platform] => 6139846553315
    [adacc_app_id] => 2230398120518804
    [adacc_account_id] => act_1711974962384822
    [adacc_platform_user_id] => 10215767923927052
    [appid_access_token] => 
    [appid_app_secret] => 
)
